{
  ".coveragerc": {
    "coverage": "sqNc5pWW97+9d4ZWZtF5qKXvNZ0iqp0WjjP2zFqmiBCn7C5cfZeb2+MA7NlpQcMn28q/AIcy+Qp9Jn+kU/UeZA=="
  },
  ".gitattributes": {},
  ".gitignore": {
    "git": "YdtuBgiebZYkx7gPnUrg80WPRfLMS9mGty7W3hFEzLlp+PDuNfiaAEbuqAAU7a1tCXWXxjBmPKuGcDeOQfrhYg==",
    "glabbase": "05dL5MMraIwcncxWu65atnC8QoWDIoeZwPGFe4NGugNU6lGfF5HKZ1+wtGuKVFgQARbc4/Uv4UTYyWFEtmBe3A=="
  },
  ".gitlab-ci.yml": {
    "glabbase.before": "71eK3GiwIpELtMkDyYpJSekqXNUXjwt0j+qWo9fh15j2fz2qtd8vuJj5tj/r3v4p2t09Et0ApU31D63FCgVtMQ==",
    "glabbase.image": "W6vyLsVpEFtBr33486EZJg/b3PlUbxuG3zwUdj8zlD9UUSMcuyKH2hltl82pXSf4Mi7tb5wulVxPOE1nk9E2TA==",
    "glabbase.stages": "b+jsaYyljn9N2c6bQ4tzUE0RvGXL3iTDDdguQH6728SPFkg0nwHuEX39ActAJoCub/LOgCcERW8UWKwQG073Aw==",
    "glabpkg_dev.before": "yE7E0uKj1orbMaO6vGdDDbFGHc2F75G7etNwDAAJUUnoTpNN/TenQv404w06TbKrJoZxv2WN8HqdKN5+Lc1Jmw==",
    "glabpkg_dev.pages": "FLpb0VGTTZyM1SuOiFB1qr/mCmoq3eXbr4pzicKEw+jbE+iJFbW1Ip3SYxxKg3X0kebAs8BJ3jnQ2gqZXg71jQ==",
    "glabpkg_dev.stages": "ud0vGyEwLf57CU298RUcNP/gPK4W+M0luf63b9YhjYNRst/BV6toz2hrjQpl7mF/bqF27krAE5WlNNMDqSSEfw==",
    "glabpkg_dev.test": "9ZYwqi4Q9FNdDgf5ikoQHefNsRcXu7laui/Go4yAS+kv2JNB4ojKZJoFt2EJoGFxQNBTYpbHEChs7ZM/+XbCdw==",
    "glabpkg_dev.test_all": "D+MdxWjmMNGB1/o47BFpzoi87vwcUOEJ+Wn4WPEm39V4SrC1tClsibYCI/xkoW6ntsxwP7xOXrhWIrTi8WB7hw=="
  },
  ".gitlab/issue_templates/bug.md": {},
  ".gitlab/issue_templates/feature.md": {},
  ".gitlab/issue_templates/technical_task.md": {},
  ".pypirc": {
    "pypi.serverdescr": "d6B+Qvp4m8jn/exks3Rn+36F5CYJtuu7hnbIDZauGJVydBD8d2afBO1Pq0KNvhuDgx5x4tslaFISorNRxUqAXA==",
    "pypi.serverlist": "PC9SiM3/1x2vn66stkaGs8IZmA3C9zq9z6sBMLr74e3tdF5l0eBAZsagfMbQjPF+AW6evtXBtpEDMsF3dkjVHQ=="
  },
  "AUTHORS.rst": {
    "doc.authors": "/4DdVJ8b3rG94lfO9Lc7StWASvDQpuf73AL4vpQmxvi4N9ShPsMeP3Shwf6i2d3e4dvIUgDW1Mc0vUxg5LkbUw==",
    "doc.contributors": "J3DSW7KTgdo8oapZqBtZND/7nxY3IXay+rBR7ozFhOJKM047KgTFZPT/yFPdXFDnkAOisXboGHN5A1jNnTs++g=="
  },
  "CONTRIBUTING.rst": {},
  "HISTORY.rst": {},
  "LICENSE": {
    "license": "8T8OUqjlQha1L2WVIjMnlAuMC7QSOZ/Cft/ojnd+BkyKsbdSw6DAbXk1TlI6UvA8A23PQAb98UcVdMqO+ENkiw=="
  },
  "README.rst": {
    "doc": "LDC2QgMS58IbAvm4BOsjQ4d/dVyXMyUBiSmhf8kLCfbEjYzRAN9PLkxmz9uj31PgAIUH3XR6xfM1QNd6QYQSug==",
    "glabpkg_dev": "DYKQ797rNWtIr8C+E+8j5sZzhmIDEQmkEesyrE9B9ujThQeq3Y+GvAWnqtAkKnYmwu65FdcmyrMQcdFdgrKkDg=="
  },
  "conda/meta.yaml": {
    "conda.about": "T86m79DdmMjCAAej8tBz9uUKiQZMH8iz8fsD4GE8u4/sCtpLXgqt4fKNwrRClCn9YLO5KHwQ6t3Sxnz46ymwmA==",
    "conda.package": "JuzgdYojC5pmrIcKik0EfXMjOWSiLuwlYFTjB1r5f3hOGl/Rp7of78StibAIpgbw4x9Lqy5jaZpWuZJbHI5Mvw==",
    "conda.req_build": "enRIZWhj+6jSn0U+DCCmitbOR9RIJthnPVPP5hI3BGSiylxzEDT3k0FNzNearbPe/Pda1xgF6GXh7GMxYmGbUg==",
    "conda.req_run": "+049+hUwpuUpPuyV1gmEGlx4qYanxccXccC892+DeuMZ3js/zIheMbT9v48LhuRXNHW3INd59DFPt78e61M52g==",
    "conda.src": "Lzbp176AVU0YantZQxB4LsR2jbxpZ/OlkvY2V4aWAEuzKEarh872uc1eRvsIYf/FsbxvcmUI84AezWlA72nI6A=="
  },
  "conda/requirements.yml": {
    "conda": "b3eWu1F8zua+X7VAp8Lj8ZmuLGEvaOLmiE2mDJf8gr7JiPdvjJtTyBiCcN1DrDN5KHXN8Ci2nH4H6VWsBhXiPw=="
  },
  "conda/requirements_minimal.yml": {
    "conda": "naWkm2GzJApzRs8aLm0zbDQUGfiZlx1TxORNYP45O9iRiPnZlRZ4YSOxx9k34Mr8chSMp3R1Rwt+goWtmOtWtQ=="
  },
  "doc/Makefile": {
    "sphinx": "EsaaEppe6Kw79WHpUyBigedrIraP6YlQDBg9Fu6jue32Rt6mCQkk2zH7gfOVqjT5bNpnXN90UfLkrzHVJCo6UQ=="
  },
  "doc/_static/nonempty.txt": {},
  "doc/authors.rst": {},
  "doc/badges/badge_doc.svg": {
    "glabpkg_dev": "KrAOCc4AelFFvqiGTii3mLryPRlBDXBQe55dDNjrw5SWa/r0cbrR+T9bkBwIY3OlYrI5xOtNf1U0qSymumGyHQ=="
  },
  "doc/badges/badge_pkging_conda.svg": {
    "glabpkg": "mju5J0S6oj+KuldyZHa3mPydIF+ah9LCBA4LuPTFr2w8G1FLq82jYhDcU1eJGEr5JRkgmUmcJlASJ/pva7UGow=="
  },
  "doc/badges/badge_pkging_pip.svg": {
    "glabpkg": "C7dDXe39bCYlsSaIbE8+csfK8GKTIXw1ETF2LvtS9bBfQxlMrMqYcii+VydUIP6GtKhL0up4mnBeOIvaUaPcdg=="
  },
  "doc/badges/listing.rst": {
    "glabpkg": "rs4yROU5DdwnWeQyVLKpqta2/+p1We1P8r4RWx7R9DXwRf1ltUlXCnUZxlAjk8gchIfd+UpVNIfNaSKZkJp7Wg==",
    "glabpkg_dev": "w/qrxnIKJZGf1KrMHOj5M22uOD5GiS3a+LgxBtKm9PJa7IPl5nLlTBWqUq2Ywnsk76w+8OCCd4kgwQSCZtEroQ=="
  },
  "doc/biblio/biblio.rst": {},
  "doc/conf.py": {
    "sphinx": "ePjFUO7RCKZVhay9CzywFDdEjTu5claPAmcHnxovOn4jsrFzBVEW5zcKWx7yvTSTCLmcWOTLeyABGBmF6ySUpw=="
  },
  "doc/contributing.rst": {},
  "doc/history.rst": {},
  "doc/index.rst": {
    "glabpkg_dev": "0AmFEkHJwRfUfr2ho+0FzQeG7jYxdaQCeN8Hg4VU9sJFtFprtitg1KTOQbkc068pvfYkUDptlYo1PQ5jlwSL9A=="
  },
  "doc/installation.rst": {
    "glabpkg": "gn8L/k40WWA7jd/RgZWdoA3KwxWTLjWSHN4UbVcRJdvDskxqnQzz3snc6mP/y41fvsB9iM1rGavewgjGei0K8Q=="
  },
  "doc/make.bat": {
    "sphinx": "YGm4hQgHnw1PnXg9JLMtdFY0BsHHh1TCB+16xzBwKfWpLpFQ8daasmiAMqvlMR6ttpbPXEVcdZ6jMo6cGJm4Qg=="
  },
  "doc/management.rst": {},
  "doc/readme.rst": {
    "glabpkg_dev": "VUgfGJEgg6V+QP1CrPhJUJ5XsSL1QCqtY1qprfqh4x7FiC+qb/6wK+c6RKin3j/W/p4u0B4exmsQV3WF67RggQ=="
  },
  "doc/usage.rst": {},
  "doc/user/index.rst": {},
  "doc/user/overview.rst": {},
  "example/readme.rst": {},
  "pyproject.toml": {
    "pyproject.build": "I2LGHHOpCXWlR8y2Sb2cY5UG39iTOOrVRVdA911ZyiSQt5YGkno3LbeRNL4DxPeE9zgYef1R8FDKDPB3U6f79g==",
    "pyproject.gui_scripts": "VNRlO4ElRuynet0DT31hGYve1t2FV1CooE7f9Bi+PIRMF5YmdymGAS4Q6k4woJdDJ3JILO7ozz/yv4RpujFdQQ==",
    "pyproject.project": "MXMFMcSSOQWhoN4ds8ZZJ/Nva2Z22KSkkLYMojs2SzDiJOicz4epJBGxGt59cnpfFKR/7cZNGgBZ1rSmSb7afA==",
    "pyproject.scripts": "nxzQt1CUNkpQiiU7Ajxf8abPXHZurGnQFv5j+v5nxAM9VwHmddCFUclVMs+nAk+DSBoFCOFU4k2hboyksj2e3Q==",
    "test": "apy2kX64sBEKT+XQ7fvjCjCIEkeOs7qo0C+hBgquPxRpbB/eMWS10MQKP227h5a4zPLNzTSVpoCKl1jsrYPU6w=="
  },
  "requirements.txt": {
    "reqs": "tHMvlMErxH69N3TImSSm7/cXJx1S/jctCBQUpsY2VuMra+kbAURDkNZR16A3N9bBLluvlPtNgPcR7d/MbNbVHQ=="
  },
  "requirements_minimal.txt": {
    "reqs": "AWuoxM/eZa+Zy1+ouKN+Lrc/SBs640mRZm3y4E/rbAOGZuvR7CtvYjlndWAzxwLd5fQj99R6tu0YJ/9TeDcx9w=="
  },
  "src/tasking/__init__.py": {
    "src": "L2dZgUBRC5qv3o09+1CbMcgYfQtR1ZNSvP8KlP8REQazZiAQAktALjpCC2ijdxvKPv/tN9KsZrzNW+lZMszSfg==",
    "version": "skSCnavrYKIlfN9Mpi+cANbU8gXulaKdlHryvkjkoSSpsag1I66dM+6JHm1aOdmKYU0rZNNgcIamCMbIL7IeMg=="
  },
  "src/tasking/version.py": {
    "version": "hDKPPEAZ+tcBsKrzuUkJK/MRuWrWq3fWNfsux1ZgZ6vkRp8UCa37+98g6LLqhK9547ofyEbOLzKOwjmEL4uyhQ=="
  },
  "test/conftest.py": {
    "test.pytest_addoption": "I/hswVryIEYvZRBcFqkfRBxLP6eZCwZSbQuPclkOkjHw4MApBst5h7H0ejnMMe4bmwHXMXR5DCSxOMj/FcCnjQ==",
    "test.pytest_cmdline_preparse": "mj/bp5vQNL6R9J8SnB+3doU7B6YPKZZud3fbOicmQ1mmrY0rqitp9a2sqxxulIWA8336EBfVVisE6beF4gccfQ==",
    "test.pytest_collection": "a/3h30sLUHJ7xWsOrmfCInOOVXvm660dS+RxHwcDUcae2jHqDLRGhq/v8zgC+FSzN3pXaEaJ1QBJ9MNLOUBuCA==",
    "test.pytest_configure": "SjyTXdrRadJNWhVFYkAvXekjOqNtovwqKNizWD35oZ9XVmsdB/B+lQDzXNPZQ0D5flFpSEURUiGqIvifgEKZ9Q==",
    "test.pytest_import": "2ox6A0szNpUYZR5cJJRSW3OwEWR558BOiUMjC/OVkTPT++CF/OCgGSELCPL+7YHWaJGQKMw2rtCXmOMeSK5ZJA=="
  },
  "test/test_packaging.py": {
    "glabpkg_dev": "B1wWyW1lUImsSasCH/A6eQd4V1tjZsLvIheqigIU0FKqMc3DqI3FAu2Nd+tAgMFg0+2pf5DliYBWkLnFkvRotQ=="
  }
}